[2018/03/07 02:47:43]   _I011et107() start
[2018/03/07 02:47:43]   decoded lic*** 
Array
(
    [order_number] => 5a9e81407867adm
    [expire_date] => 03/21/2018
    [ADMIN] => 1
    [DEVELOPER] => 0
    [VIEWER] => 0
    [cust_email] => demo_xapi@infocaptor.com
    [install_id] => _var_www_html_bigbox_public_infocaptor_dash_dasprod1_Linuxx86_64
    [type] => DEMO
    [restriction] => NONE
    [project_count] => 3
    [page_count] => 9
    [page_object_count] => -1
    [connect_object_count] => 3
    [job_object_count] => 6
    [company_name] => Demo
    [order_date] => 03/06/2018
    [name] => none
    [product_name] => ICE_SOCIAL_DW_DEMO
    [product_attr1] => xyz
    [url1] => localhost
    [url2] => 127.0.0.1
    [url3] => 10.62.165.147
)

[2018/03/07 02:47:43]   Array
(
    [order_number] => 5a9e81407867adm
    [expire_date] => 03/21/2018
    [ADMIN] => 1
    [DEVELOPER] => 0
    [VIEWER] => 0
    [cust_email] => demo_xapi@infocaptor.com
    [install_id] => _var_www_html_bigbox_public_infocaptor_dash_dasprod1_Linuxx86_64
    [type] => DEMO
    [restriction] => NONE
    [project_count] => 3
    [page_count] => 9
    [page_object_count] => -1
    [connect_object_count] => 3
    [job_object_count] => 6
    [company_name] => Demo
    [order_date] => 03/06/2018
    [name] => none
    [product_name] => ICE_SOCIAL_DW_DEMO
    [product_attr1] => xyz
    [url1] => localhost
    [url2] => 127.0.0.1
    [url3] => 10.62.165.147
    [license_text] => license
    [ss] => N
)

[2018/03/07 02:47:43]   xmember_api._I011ho151() start
[2018/03/07 02:47:43]   Array
(
    [UZ101] => X3Zhcl93d3dfaHRtbF9iaWdib3hfcHVibGljX2luZm9jYXB0b3JfZGFzaF9kYXNwcm9kMV9MaW51eHg4Nl82NA==
    [lic_details] => Array
        (
            [order_number] => 5a9e81407867adm
            [expire_date] => 03/21/2018
            [ADMIN] => 1
            [DEVELOPER] => 0
            [VIEWER] => 0
            [cust_email] => demo_xapi@infocaptor.com
            [install_id] => _var_www_html_bigbox_public_infocaptor_dash_dasprod1_Linuxx86_64
            [type] => DEMO
            [restriction] => NONE
            [project_count] => 3
            [page_count] => 9
            [page_object_count] => -1
            [connect_object_count] => 3
            [job_object_count] => 6
            [company_name] => Demo
            [order_date] => 03/06/2018
            [name] => none
            [product_name] => ICE_SOCIAL_DW_DEMO
            [product_attr1] => xyz
            [url1] => localhost
            [url2] => 127.0.0.1
            [url3] => 10.62.165.147
            [license_text] => license
            [ss] => N
        )

    [product_name] => ICE_SOCIAL_DW_DEMO
)

[2018/03/07 02:47:43]   xmember_api._I011et97() start
[2018/03/07 02:47:43]   xmember_api.connection db_arrayArray
(
    [repository] => Array
        (
            [type] => mysql
            [host] => localhost
            [port] => 3306
            [user] => infocaptordb
            [pass] => infocaptordb
            [name] => infocaptor_server
        )

)

[2018/03/07 02:47:43]   mysql:host=localhost;port=3306;dbname=infocaptor_server
[2018/03/07 02:48:48]   _I011et107() start
[2018/03/07 02:48:48]   decoded lic*** 
Array
(
    [order_number] => 5a9e81407867adm
    [expire_date] => 03/21/2018
    [ADMIN] => 1
    [DEVELOPER] => 0
    [VIEWER] => 0
    [cust_email] => demo_xapi@infocaptor.com
    [install_id] => _var_www_html_bigbox_public_infocaptor_dash_dasprod1_Linuxx86_64
    [type] => DEMO
    [restriction] => NONE
    [project_count] => 3
    [page_count] => 9
    [page_object_count] => -1
    [connect_object_count] => 3
    [job_object_count] => 6
    [company_name] => Demo
    [order_date] => 03/06/2018
    [name] => none
    [product_name] => ICE_SOCIAL_DW_DEMO
    [product_attr1] => xyz
    [url1] => localhost
    [url2] => 127.0.0.1
    [url3] => 10.62.165.147
)

[2018/03/07 02:48:48]   Array
(
    [order_number] => 5a9e81407867adm
    [expire_date] => 03/21/2018
    [ADMIN] => 1
    [DEVELOPER] => 0
    [VIEWER] => 0
    [cust_email] => demo_xapi@infocaptor.com
    [install_id] => _var_www_html_bigbox_public_infocaptor_dash_dasprod1_Linuxx86_64
    [type] => DEMO
    [restriction] => NONE
    [project_count] => 3
    [page_count] => 9
    [page_object_count] => -1
    [connect_object_count] => 3
    [job_object_count] => 6
    [company_name] => Demo
    [order_date] => 03/06/2018
    [name] => none
    [product_name] => ICE_SOCIAL_DW_DEMO
    [product_attr1] => xyz
    [url1] => localhost
    [url2] => 127.0.0.1
    [url3] => 10.62.165.147
    [license_text] => license
    [ss] => N
)

[2018/03/07 02:48:48]   xmember_api._I011ho151() start
[2018/03/07 02:48:48]   Array
(
    [UZ101] => X3Zhcl93d3dfaHRtbF9iaWdib3hfcHVibGljX2luZm9jYXB0b3JfZGFzaF9kYXNwcm9kMV9MaW51eHg4Nl82NA==
    [lic_details] => Array
        (
            [order_number] => 5a9e81407867adm
            [expire_date] => 03/21/2018
            [ADMIN] => 1
            [DEVELOPER] => 0
            [VIEWER] => 0
            [cust_email] => demo_xapi@infocaptor.com
            [install_id] => _var_www_html_bigbox_public_infocaptor_dash_dasprod1_Linuxx86_64
            [type] => DEMO
            [restriction] => NONE
            [project_count] => 3
            [page_count] => 9
            [page_object_count] => -1
            [connect_object_count] => 3
            [job_object_count] => 6
            [company_name] => Demo
            [order_date] => 03/06/2018
            [name] => none
            [product_name] => ICE_SOCIAL_DW_DEMO
            [product_attr1] => xyz
            [url1] => localhost
            [url2] => 127.0.0.1
            [url3] => 10.62.165.147
            [license_text] => license
            [ss] => N
        )

    [product_name] => ICE_SOCIAL_DW_DEMO
    [login_validated] => NO
)

[2018/03/07 02:48:48]   xmember_api._I011et97() start
[2018/03/07 02:48:48]   xmember_api.connection db_arrayArray
(
    [repository] => Array
        (
            [type] => mysql
            [host] => localhost
            [port] => 3306
            [user] => infocaptordb
            [pass] => infocaptordb
            [name] => infocaptor_server
        )

)

[2018/03/07 02:48:48]   mysql:host=localhost;port=3306;dbname=infocaptor_server
[2018/03/07 02:48:48]   xmember_api._I011al177() start
[2018/03/07 02:48:48]   xmember_api._I011al177() login:admin - pwd
[2018/03/07 02:48:48]   xmember_api._I011et126() start
[2018/03/07 02:48:48]   xmember_api._I011et126() 'admin' 
[2018/03/07 02:48:48]   xmember_api._I011et97() sending the old connection which is still active
[2018/03/07 02:48:48]   xmember_api._I011et121() start
[2018/03/07 02:48:48]   xmember_api._I011et121 SQL=   SELECT
  u.user_id
, u.first_name
, u.last_name
, u.email
, u.role_id
, u.password
, u.created_by
,   u.ip_address
, u.active
        ,u.api_id
        ,r.role_name
        ,r.role_code
        ,r.level
, u.username  	
, u.description	
,date_format(u.creation_date,'%m/%d/%Y') user_start_date
,date_format(date_add(u.creation_date,INTERVAL 31 DAY),'%m/%d/%Y') user_end_date
from xuser u
,    xrole r
WHERE ( u.username='admin' or u.email='admin' )
and u.role_id = r.role_id
[2018/03/07 02:48:48]   xmember_api._I011et97() sending the old connection which is still active
[2018/03/07 02:48:48]   xmember_api._I011et126() admin= Array
(
    [user_id] => 1
    [first_name] => Adminstrator
    [last_name] => 
    [email] => NONE
    [role_id] => 1
    [password] => eadd8e6a53596b36aa84bd2ed2f33677ae8597b6
    [created_by] => 0
    [ip_address] => 0.0.0.0
    [active] => Y
    [api_id] => 62f9e2a7ef380710376585608c076011dad38aa3
    [role_name] => ADMIN
    [role_code] => ADMIN
    [level] => 0
    [username] => admin
    [description] => 
    [user_start_date] => 03/06/2018
    [user_end_date] => 04/06/2018
)

[2018/03/07 02:48:48]   xmember_api._I011nc63() start
[2018/03/07 02:48:48]   xmember_api._I011nc63() start
[2018/03/07 02:48:48]   xmember_api._I011dd25() u2s start
