[2018/03/07 02:46:01]   _I011et107() start
[2018/03/07 02:46:01]   decoded lic*** 
Array
(
    [order_number] => 5a9e81407867adm
    [expire_date] => 03/21/2018
    [ADMIN] => 1
    [DEVELOPER] => 0
    [VIEWER] => 0
    [cust_email] => demo_xapi@infocaptor.com
    [install_id] => _var_www_html_bigbox_public_infocaptor_dash_dasprod1_Linuxx86_64
    [type] => DEMO
    [restriction] => NONE
    [project_count] => 3
    [page_count] => 9
    [page_object_count] => -1
    [connect_object_count] => 3
    [job_object_count] => 6
    [company_name] => Demo
    [order_date] => 03/06/2018
    [name] => none
    [product_name] => ICE_SOCIAL_DW_DEMO
    [product_attr1] => xyz
    [url1] => localhost
    [url2] => 127.0.0.1
    [url3] => 10.62.165.147
)

[2018/03/07 02:46:01]   Array
(
    [order_number] => 5a9e81407867adm
    [expire_date] => 03/21/2018
    [ADMIN] => 1
    [DEVELOPER] => 0
    [VIEWER] => 0
    [cust_email] => demo_xapi@infocaptor.com
    [install_id] => _var_www_html_bigbox_public_infocaptor_dash_dasprod1_Linuxx86_64
    [type] => DEMO
    [restriction] => NONE
    [project_count] => 3
    [page_count] => 9
    [page_object_count] => -1
    [connect_object_count] => 3
    [job_object_count] => 6
    [company_name] => Demo
    [order_date] => 03/06/2018
    [name] => none
    [product_name] => ICE_SOCIAL_DW_DEMO
    [product_attr1] => xyz
    [url1] => localhost
    [url2] => 127.0.0.1
    [url3] => 10.62.165.147
    [license_text] => license
    [ss] => N
)

[2018/03/07 02:46:01]   xmember_api._I011ho151() start
[2018/03/07 02:46:01]   Array
(
    [user_id] => 1
    [first_name] => Adminstrator
    [last_name] => 
    [email] => NONE
    [role_id] => 1
    [sess_cache_id] => eadd8e6a53596b36aa84bd2ed2f33677ae8597b6
    [created_by] => 0
    [ip_address] => 0.0.0.0
    [active] => Y
    [username] => admin
    [api_id] => 62f9e2a7ef380710376585608c076011dad38aa3
    [role_name] => ADMIN
    [role_code] => ADMIN
    [level] => 0
    [description] => 
    [user_start_date] => 03/06/2018
    [user_end_date] => 04/06/2018
    [rows_affected] => 1
    [login_validated] => YES
    [UZ101] => X3Zhcl93d3dfaHRtbF9iaWdib3hfcHVibGljX2luZm9jYXB0b3JfZGFzaF9kYXNwcm9kMV9MaW51eHg4Nl82NA==
    [lic_details] => Array
        (
            [order_number] => 5a9e81407867adm
            [expire_date] => 03/21/2018
            [ADMIN] => 1
            [DEVELOPER] => 0
            [VIEWER] => 0
            [cust_email] => demo_xapi@infocaptor.com
            [install_id] => _var_www_html_bigbox_public_infocaptor_dash_dasprod1_Linuxx86_64
            [type] => DEMO
            [restriction] => NONE
            [project_count] => 3
            [page_count] => 9
            [page_object_count] => -1
            [connect_object_count] => 3
            [job_object_count] => 6
            [company_name] => Demo
            [order_date] => 03/06/2018
            [name] => none
            [product_name] => ICE_SOCIAL_DW_DEMO
            [product_attr1] => xyz
            [url1] => localhost
            [url2] => 127.0.0.1
            [url3] => 10.62.165.147
            [license_text] => license
            [ss] => N
        )

    [product_name] => ICE_SOCIAL_DW_DEMO
    [usage] => NORMAL
    [restrict] => NO
    [server_interaction] => YES
    [urlhost] => 10.62.165.147
    [domainhost] => 10.62.165.147:90
    [user_org_role] => ADMIN
)

[2018/03/07 02:46:01]   xmember_api._I011et97() start
[2018/03/07 02:46:01]   xmember_api.connection db_arrayArray
(
    [repository] => Array
        (
            [type] => mysql
            [host] => localhost
            [port] => 3306
            [user] => infocaptordb
            [pass] => infocaptordb
            [name] => infocaptor_server
        )

)

[2018/03/07 02:46:01]   mysql:host=localhost;port=3306;dbname=infocaptor_server
[2018/03/07 02:48:48]   xmember_api._I011ho151() start
[2018/03/07 02:48:48]   Array
(
    [user_id] => 1
    [first_name] => Adminstrator
    [last_name] => 
    [email] => NONE
    [role_id] => 1
    [sess_cache_id] => eadd8e6a53596b36aa84bd2ed2f33677ae8597b6
    [created_by] => 0
    [ip_address] => 0.0.0.0
    [active] => Y
    [username] => admin
    [api_id] => 62f9e2a7ef380710376585608c076011dad38aa3
    [role_name] => ADMIN
    [role_code] => ADMIN
    [level] => 0
    [description] => 
    [user_start_date] => 03/06/2018
    [user_end_date] => 04/06/2018
)

[2018/03/07 02:48:48]   admin >> Login success
[2018/03/07 02:48:48]   xmember_api._I011et100() start
[2018/03/07 02:48:48]   xmember_api._I011et100 SQL=
 INSERT INTO xlogin (
 login_name
 , creation_date
 )
 values
 (
'admin'
  , now()
)


[2018/03/07 02:48:48]   xmember_api._I011et97() sending the old connection which is still active
[2018/03/07 02:48:48]   rows affected = 1
[2018/03/07 02:48:48]   _I011et107() start
[2018/03/07 02:48:48]   decoded lic*** 
Array
(
    [order_number] => 5a9e81407867adm
    [expire_date] => 03/21/2018
    [ADMIN] => 1
    [DEVELOPER] => 0
    [VIEWER] => 0
    [cust_email] => demo_xapi@infocaptor.com
    [install_id] => _var_www_html_bigbox_public_infocaptor_dash_dasprod1_Linuxx86_64
    [type] => DEMO
    [restriction] => NONE
    [project_count] => 3
    [page_count] => 9
    [page_object_count] => -1
    [connect_object_count] => 3
    [job_object_count] => 6
    [company_name] => Demo
    [order_date] => 03/06/2018
    [name] => none
    [product_name] => ICE_SOCIAL_DW_DEMO
    [product_attr1] => xyz
    [url1] => localhost
    [url2] => 127.0.0.1
    [url3] => 10.62.165.147
)

[2018/03/07 02:48:48]   Array
(
    [order_number] => 5a9e81407867adm
    [expire_date] => 03/21/2018
    [ADMIN] => 1
    [DEVELOPER] => 0
    [VIEWER] => 0
    [cust_email] => demo_xapi@infocaptor.com
    [install_id] => _var_www_html_bigbox_public_infocaptor_dash_dasprod1_Linuxx86_64
    [type] => DEMO
    [restriction] => NONE
    [project_count] => 3
    [page_count] => 9
    [page_object_count] => -1
    [connect_object_count] => 3
    [job_object_count] => 6
    [company_name] => Demo
    [order_date] => 03/06/2018
    [name] => none
    [product_name] => ICE_SOCIAL_DW_DEMO
    [product_attr1] => xyz
    [url1] => localhost
    [url2] => 127.0.0.1
    [url3] => 10.62.165.147
    [license_text] => license
    [ss] => N
)

[2018/03/07 02:48:48]   xmember_api._I011ho151() start
[2018/03/07 02:48:48]   Array
(
    [user_id] => 1
    [first_name] => Adminstrator
    [last_name] => 
    [email] => NONE
    [role_id] => 1
    [sess_cache_id] => eadd8e6a53596b36aa84bd2ed2f33677ae8597b6
    [created_by] => 0
    [ip_address] => 0.0.0.0
    [active] => Y
    [username] => admin
    [api_id] => 62f9e2a7ef380710376585608c076011dad38aa3
    [role_name] => ADMIN
    [role_code] => ADMIN
    [level] => 0
    [description] => 
    [user_start_date] => 03/06/2018
    [user_end_date] => 04/06/2018
    [rows_affected] => 1
    [login_validated] => YES
    [UZ101] => X3Zhcl93d3dfaHRtbF9iaWdib3hfcHVibGljX2luZm9jYXB0b3JfZGFzaF9kYXNwcm9kMV9MaW51eHg4Nl82NA==
    [lic_details] => Array
        (
            [order_number] => 5a9e81407867adm
            [expire_date] => 03/21/2018
            [ADMIN] => 1
            [DEVELOPER] => 0
            [VIEWER] => 0
            [cust_email] => demo_xapi@infocaptor.com
            [install_id] => _var_www_html_bigbox_public_infocaptor_dash_dasprod1_Linuxx86_64
            [type] => DEMO
            [restriction] => NONE
            [project_count] => 3
            [page_count] => 9
            [page_object_count] => -1
            [connect_object_count] => 3
            [job_object_count] => 6
            [company_name] => Demo
            [order_date] => 03/06/2018
            [name] => none
            [product_name] => ICE_SOCIAL_DW_DEMO
            [product_attr1] => xyz
            [url1] => localhost
            [url2] => 127.0.0.1
            [url3] => 10.62.165.147
            [license_text] => license
            [ss] => N
        )

    [product_name] => ICE_SOCIAL_DW_DEMO
)

[2018/03/07 02:48:48]   xmember_api._I011et97() start
[2018/03/07 02:48:48]   xmember_api.connection db_arrayArray
(
    [repository] => Array
        (
            [type] => mysql
            [host] => localhost
            [port] => 3306
            [user] => infocaptordb
            [pass] => infocaptordb
            [name] => infocaptor_server
        )

)

[2018/03/07 02:48:48]   mysql:host=localhost;port=3306;dbname=infocaptor_server
[2018/03/07 02:48:48]   domain -> 10.62.165.147
[2018/03/07 02:48:48]   _I011et129 user=1
[2018/03/07 02:48:48]   xmember_api._I011et68() gapp start
[2018/03/07 02:48:48]   xmember_api. parameters username=admin
[2018/03/07 02:48:48]   xmember_api._I011et93() start
[2018/03/07 02:48:48]   xmember_api._I011et93 SQL= Select 
 'My_Projects' share_type,
       xob6.object_id ,
       xob6.object_code ,
       xob6.object_type_id ,
       xob6.object_name ,
       xca.category_code ,
       xca.category_name ,
       xca.category_type ,
       xca.active category_active,
       xob6.active object_active,
       xus.username ,
       xus.user_id,
	   xus.active user_active,
	   xob6.locked_by_name,
	   xob6.is_public object_public,
	   xca.is_public category_public,
	   xob6.attrib1,xob6.attrib2,xob6.attrib3
From 
      xuser    xus  ,
      xobject    xob6  ,
      xcategory    xca  ,
      xobject_category_map    xob
where 
   xob6.object_id = xob.object_id
 and   xca.category_id = xob.category_id
 and   xus.username like 'admin'
and xus.user_id=xob6.created_by
 and xca.category_type='PROJECT'
 and   xca.category_code like '%'
 and   xob6.object_code like  '%'
 and  (xob6.active='Y' OR xob6.active='A')
 and (xca.active='Y' OR xca.active='A')order by xca.category_name ASC, xob6.object_name ASC
[2018/03/07 02:48:48]   xmember_api._I011et97() sending the old connection which is still active
[2018/03/07 02:48:48]   _I011et93 
Array
(
    [0] => Array
        (
            [share_type] => My_Projects
            [object_id] => 1
            [object_code] => home_5a9e820adb751
            [object_type_id] => 1
            [object_name] => Home
            [category_code] => project1_5a9e820ad9e7b
            [category_name] => project1
            [category_type] => PROJECT
            [category_active] => Y
            [object_active] => Y
            [username] => admin
            [user_id] => 1
            [user_active] => Y
            [locked_by_name] => admin
            [object_public] => 
            [category_public] => 
            [attrib1] => 
            [attrib2] => 
            [attrib3] => 20180306_195024
        )

)

[2018/03/07 02:48:48]   xmember_api._I011et69() gapp start
[2018/03/07 02:48:48]   xmember_api. parameters username=admin
[2018/03/07 02:48:48]   xmember_api._I011et93() start
[2018/03/07 02:48:48]   xmember_api._I011et93 SQL=
select r.role_code,
x.share_type,
x.object_id ,
x.object_code ,
x.object_type_id ,
x.object_name ,
x.category_code ,
concat(x.category_name,' ( by ',x.owner_username,')') category_name,
x.category_type ,
x.category_active,
x.object_active,
x.username ,
x.user_id,
x.locked_by_name,
x.object_public,
x.category_public,
x.owner_username,
x.owner_email,
x.owner_first,
x.role_id
from
(
Select 
'GROUP Share' share_type,
        xob6.object_id ,
       xob6.object_code ,
       xob6.object_type_id ,
       xob6.object_name ,
       xca.category_code ,
     xca.category_name,
       xca.category_type ,
       xca.active category_active,
       xob6.active object_active,
       xus.username ,
       xus.user_id,
	   xob6.locked_by_name,
	   xob6.is_public object_public,
	   xca.is_public category_public,
xuo.username owner_username,
xuo.email    owner_email,
xuo.first_name owner_first,
max(greatest(xugm.role_id,xgcm.role_id)) role_id
From 
      xuser    xus  ,
      xobject    xob6  ,
      xcategory    xca  ,
      xobject_category_map    xob,
xuser_group_map xugm,
xgroup_category_map xgcm,
xuser xuo
where 
/*find all groups that the user belongs except the ones that he created*/
xugm.group_id=xgcm.group_id 
and xugm.user_id = xus.user_id
/*and xugm.created_by =xugm.user_id*/
and xugm.active='Y'
and xgcm.active='Y'
/*find all the projects that are assigned to this group*/
and xca.category_id = xgcm.category_id

/*find all objects assigned to this category */
and xob.category_id = xca.category_id

/*find all object details */
and xob6.object_id = xob.object_id

/*exclude all user created projects */
and xca.created_by!=xus.user_id

/*add owner details */
and xuo.user_id = xob6.created_by

 and   xus.username like 'admin'
 and xca.category_type='PROJECT'

 and  (xob6.active='Y' OR xob6.active='A')
 and (xca.active='Y' OR xca.active='A')
group by
       xob6.object_id ,
       xob6.object_code ,
       xob6.object_type_id ,
       xob6.object_name ,
       xca.category_code ,
     xca.category_name,
       xca.category_type ,
       xca.active,
       xob6.active,
       xus.username ,
       xus.user_id,
	   xob6.locked_by_name,
	   xob6.is_public,
	   xca.is_public,
xuo.username,
xuo.email ,
xuo.first_name
union
SELECT 
'PAGE Share' share_type,
xob6.object_id ,
xob6.object_code ,
xob6.object_type_id ,
xob6.object_name ,
xca.category_code ,
xca.category_name,
xca.category_type ,
xca.active category_active,
xob6.active object_active,
xus.username ,
xus.user_id,
xob6.locked_by_name,
xob6.is_public object_public,
xca.is_public category_public,
xuo.username owner_username,
xuo.email    owner_email,
xuo.first_name owner_first,
xcm.role_id
FROM  xobject_category_map xcm
, xobject_category_map xcmo
, xobject xob6
, xcategory xc
, xcategory xca
, xuser xus
, xuser xuo
where 
/* for the given user find its default category */
 xc.category_type='CATEGORY'
and xc.category_code='DEFAULT_CATEGORY_admin'

/* find the category mappings with this default category */
and xc.category_id=xcm.category_id

/*is the category mapping active */
and xcm.active='Y'

/* find object asscoiated with this category, these are directly shared */
and xob6.object_id=xcm.object_id

/* for this object, find the parent category */
and xob6.object_id = xcmo.object_id
and xcmo.category_id = xca.category_id

/* parent category is of 'PROJECT' type */
and xca.category_type='PROJECT'

/* is the parent category active */
 and (xca.active='Y' OR xca.active='A')

/* is the object active */
 and  (xob6.active='Y' OR xob6.active='A')

/* find the owner of the object */
and xob6.created_by=xuo.user_id

/* who is the requesting user */
and xc.created_by=xus.user_id
union
SELECT 
'PUBLIC' share_type,
xob6.object_id ,
xob6.object_code ,
xob6.object_type_id ,
xob6.object_name ,
xca.category_code ,
xca.category_name,
xca.category_type ,
xca.active category_active,
xob6.active object_active,
xus.username ,
xus.user_id,
xob6.locked_by_name,
xob6.is_public object_public,
xca.is_public category_public,
xuo.username owner_username,
xuo.email    owner_email,
xuo.first_name owner_first,
xcm.role_id
FROM  xobject_category_map xcm
, xobject_category_map xcmo
, xobject xob6
, xcategory xc
, xcategory xca
, xuser xus
, xuser xuo
where 
/* for the given user find its default category */
 xc.category_type='CATEGORY'
and xc.category_code='DEFAULT_CATEGORY_PUBLIC'

/* find the category mappings with this default category */
and xc.category_id=xcm.category_id

/*is the category mapping active */
and xcm.active='Y'

/* find object asscoiated with this category, these are directly shared */
and xob6.object_id=xcm.object_id

/* for this object, find the parent category */
and xob6.object_id = xcmo.object_id
and xcmo.category_id = xca.category_id

/* parent category is of 'PROJECT' type */
and xca.category_type='PROJECT'

/* is the parent category active */
 and (xca.active='Y' OR xca.active='A')

/* is the object active */
 and  (xob6.active='Y' OR xob6.active='A')

/* find the owner of the object */
and xob6.created_by=xuo.user_id

/* who is the requesting user */
and xc.created_by=xus.user_id
) as x
, xrole r
where x.role_id =r.role_id
order by x.share_type,x.owner_username,x.category_name,x.object_name

[2018/03/07 02:48:48]   xmember_api._I011et97() sending the old connection which is still active
[2018/03/07 02:48:48]   _I011et93 
Array
(
)

[2018/03/07 02:48:52]   _I011et107() start
[2018/03/07 02:48:52]   decoded lic*** 
Array
(
    [order_number] => 5a9e81407867adm
    [expire_date] => 03/21/2018
    [ADMIN] => 1
    [DEVELOPER] => 0
    [VIEWER] => 0
    [cust_email] => demo_xapi@infocaptor.com
    [install_id] => _var_www_html_bigbox_public_infocaptor_dash_dasprod1_Linuxx86_64
    [type] => DEMO
    [restriction] => NONE
    [project_count] => 3
    [page_count] => 9
    [page_object_count] => -1
    [connect_object_count] => 3
    [job_object_count] => 6
    [company_name] => Demo
    [order_date] => 03/06/2018
    [name] => none
    [product_name] => ICE_SOCIAL_DW_DEMO
    [product_attr1] => xyz
    [url1] => localhost
    [url2] => 127.0.0.1
    [url3] => 10.62.165.147
)

[2018/03/07 02:48:52]   Array
(
    [order_number] => 5a9e81407867adm
    [expire_date] => 03/21/2018
    [ADMIN] => 1
    [DEVELOPER] => 0
    [VIEWER] => 0
    [cust_email] => demo_xapi@infocaptor.com
    [install_id] => _var_www_html_bigbox_public_infocaptor_dash_dasprod1_Linuxx86_64
    [type] => DEMO
    [restriction] => NONE
    [project_count] => 3
    [page_count] => 9
    [page_object_count] => -1
    [connect_object_count] => 3
    [job_object_count] => 6
    [company_name] => Demo
    [order_date] => 03/06/2018
    [name] => none
    [product_name] => ICE_SOCIAL_DW_DEMO
    [product_attr1] => xyz
    [url1] => localhost
    [url2] => 127.0.0.1
    [url3] => 10.62.165.147
    [license_text] => license
    [ss] => N
)

[2018/03/07 02:48:52]   xmember_api._I011ho151() start
[2018/03/07 02:48:52]   Array
(
    [user_id] => 1
    [first_name] => Adminstrator
    [last_name] => 
    [email] => NONE
    [role_id] => 1
    [sess_cache_id] => eadd8e6a53596b36aa84bd2ed2f33677ae8597b6
    [created_by] => 0
    [ip_address] => 0.0.0.0
    [active] => Y
    [username] => admin
    [api_id] => 62f9e2a7ef380710376585608c076011dad38aa3
    [role_name] => ADMIN
    [role_code] => ADMIN
    [level] => 0
    [description] => 
    [user_start_date] => 03/06/2018
    [user_end_date] => 04/06/2018
    [rows_affected] => 1
    [login_validated] => YES
    [UZ101] => X3Zhcl93d3dfaHRtbF9iaWdib3hfcHVibGljX2luZm9jYXB0b3JfZGFzaF9kYXNwcm9kMV9MaW51eHg4Nl82NA==
    [lic_details] => Array
        (
            [order_number] => 5a9e81407867adm
            [expire_date] => 03/21/2018
            [ADMIN] => 1
            [DEVELOPER] => 0
            [VIEWER] => 0
            [cust_email] => demo_xapi@infocaptor.com
            [install_id] => _var_www_html_bigbox_public_infocaptor_dash_dasprod1_Linuxx86_64
            [type] => DEMO
            [restriction] => NONE
            [project_count] => 3
            [page_count] => 9
            [page_object_count] => -1
            [connect_object_count] => 3
            [job_object_count] => 6
            [company_name] => Demo
            [order_date] => 03/06/2018
            [name] => none
            [product_name] => ICE_SOCIAL_DW_DEMO
            [product_attr1] => xyz
            [url1] => localhost
            [url2] => 127.0.0.1
            [url3] => 10.62.165.147
            [license_text] => license
            [ss] => N
        )

    [product_name] => ICE_SOCIAL_DW_DEMO
    [usage] => NORMAL
    [restrict] => NO
    [server_interaction] => YES
    [urlhost] => 10.62.165.147
    [domainhost] => 10.62.165.147:90
    [user_org_role] => ADMIN
)

[2018/03/07 02:48:52]   xmember_api._I011et97() start
[2018/03/07 02:48:52]   xmember_api.connection db_arrayArray
(
    [repository] => Array
        (
            [type] => mysql
            [host] => localhost
            [port] => 3306
            [user] => infocaptordb
            [pass] => infocaptordb
            [name] => infocaptor_server
        )

)

[2018/03/07 02:48:52]   mysql:host=localhost;port=3306;dbname=infocaptor_server
[2018/03/07 02:48:52]   xmember_api._I011et68() gapp start
[2018/03/07 02:48:52]   xmember_api. parameters username=admin
[2018/03/07 02:48:52]   xmember_api._I011et93() start
[2018/03/07 02:48:52]   xmember_api._I011et93 SQL= Select 
 'My_Projects' share_type,
       xob6.object_id ,
       xob6.object_code ,
       xob6.object_type_id ,
       xob6.object_name ,
       xca.category_code ,
       xca.category_name ,
       xca.category_type ,
       xca.active category_active,
       xob6.active object_active,
       xus.username ,
       xus.user_id,
	   xus.active user_active,
	   xob6.locked_by_name,
	   xob6.is_public object_public,
	   xca.is_public category_public,
	   xob6.attrib1,xob6.attrib2,xob6.attrib3
From 
      xuser    xus  ,
      xobject    xob6  ,
      xcategory    xca  ,
      xobject_category_map    xob
where 
   xob6.object_id = xob.object_id
 and   xca.category_id = xob.category_id
 and   xus.username like 'admin'
and xus.user_id=xob6.created_by
 and xca.category_type='PROJECT'
 and   xca.category_code like '%'
 and   xob6.object_code like  '%'
 and  (xob6.active='Y' OR xob6.active='A')
 and (xca.active='Y' OR xca.active='A')order by xca.category_name ASC, xob6.object_name ASC
[2018/03/07 02:48:52]   xmember_api._I011et97() sending the old connection which is still active
[2018/03/07 02:48:52]   _I011et93 
Array
(
    [0] => Array
        (
            [share_type] => My_Projects
            [object_id] => 1
            [object_code] => home_5a9e820adb751
            [object_type_id] => 1
            [object_name] => Home
            [category_code] => project1_5a9e820ad9e7b
            [category_name] => project1
            [category_type] => PROJECT
            [category_active] => Y
            [object_active] => Y
            [username] => admin
            [user_id] => 1
            [user_active] => Y
            [locked_by_name] => admin
            [object_public] => 
            [category_public] => 
            [attrib1] => 
            [attrib2] => 
            [attrib3] => 20180306_195024
        )

)

[2018/03/07 02:48:52]   exp dt is set to -1521565200 --- 03/21/2018
[2018/03/07 02:48:52]   exp dt is set to -1521565200 --- 03/21/2018
[2018/03/07 02:48:52]   xmember_api._I011et69() gapp start
[2018/03/07 02:48:52]   xmember_api. parameters username=admin
[2018/03/07 02:48:52]   xmember_api._I011et93() start
[2018/03/07 02:48:52]   xmember_api._I011et93 SQL=
select r.role_code,
x.share_type,
x.object_id ,
x.object_code ,
x.object_type_id ,
x.object_name ,
x.category_code ,
concat(x.category_name,' ( by ',x.owner_username,')') category_name,
x.category_type ,
x.category_active,
x.object_active,
x.username ,
x.user_id,
x.locked_by_name,
x.object_public,
x.category_public,
x.owner_username,
x.owner_email,
x.owner_first,
x.role_id
from
(
Select 
'GROUP Share' share_type,
        xob6.object_id ,
       xob6.object_code ,
       xob6.object_type_id ,
       xob6.object_name ,
       xca.category_code ,
     xca.category_name,
       xca.category_type ,
       xca.active category_active,
       xob6.active object_active,
       xus.username ,
       xus.user_id,
	   xob6.locked_by_name,
	   xob6.is_public object_public,
	   xca.is_public category_public,
xuo.username owner_username,
xuo.email    owner_email,
xuo.first_name owner_first,
max(greatest(xugm.role_id,xgcm.role_id)) role_id
From 
      xuser    xus  ,
      xobject    xob6  ,
      xcategory    xca  ,
      xobject_category_map    xob,
xuser_group_map xugm,
xgroup_category_map xgcm,
xuser xuo
where 
/*find all groups that the user belongs except the ones that he created*/
xugm.group_id=xgcm.group_id 
and xugm.user_id = xus.user_id
/*and xugm.created_by =xugm.user_id*/
and xugm.active='Y'
and xgcm.active='Y'
/*find all the projects that are assigned to this group*/
and xca.category_id = xgcm.category_id

/*find all objects assigned to this category */
and xob.category_id = xca.category_id

/*find all object details */
and xob6.object_id = xob.object_id

/*exclude all user created projects */
and xca.created_by!=xus.user_id

/*add owner details */
and xuo.user_id = xob6.created_by

 and   xus.username like 'admin'
 and xca.category_type='PROJECT'

 and  (xob6.active='Y' OR xob6.active='A')
 and (xca.active='Y' OR xca.active='A')
group by
       xob6.object_id ,
       xob6.object_code ,
       xob6.object_type_id ,
       xob6.object_name ,
       xca.category_code ,
     xca.category_name,
       xca.category_type ,
       xca.active,
       xob6.active,
       xus.username ,
       xus.user_id,
	   xob6.locked_by_name,
	   xob6.is_public,
	   xca.is_public,
xuo.username,
xuo.email ,
xuo.first_name
union
SELECT 
'PAGE Share' share_type,
xob6.object_id ,
xob6.object_code ,
xob6.object_type_id ,
xob6.object_name ,
xca.category_code ,
xca.category_name,
xca.category_type ,
xca.active category_active,
xob6.active object_active,
xus.username ,
xus.user_id,
xob6.locked_by_name,
xob6.is_public object_public,
xca.is_public category_public,
xuo.username owner_username,
xuo.email    owner_email,
xuo.first_name owner_first,
xcm.role_id
FROM  xobject_category_map xcm
, xobject_category_map xcmo
, xobject xob6
, xcategory xc
, xcategory xca
, xuser xus
, xuser xuo
where 
/* for the given user find its default category */
 xc.category_type='CATEGORY'
and xc.category_code='DEFAULT_CATEGORY_admin'

/* find the category mappings with this default category */
and xc.category_id=xcm.category_id

/*is the category mapping active */
and xcm.active='Y'

/* find object asscoiated with this category, these are directly shared */
and xob6.object_id=xcm.object_id

/* for this object, find the parent category */
and xob6.object_id = xcmo.object_id
and xcmo.category_id = xca.category_id

/* parent category is of 'PROJECT' type */
and xca.category_type='PROJECT'

/* is the parent category active */
 and (xca.active='Y' OR xca.active='A')

/* is the object active */
 and  (xob6.active='Y' OR xob6.active='A')

/* find the owner of the object */
and xob6.created_by=xuo.user_id

/* who is the requesting user */
and xc.created_by=xus.user_id
union
SELECT 
'PUBLIC' share_type,
xob6.object_id ,
xob6.object_code ,
xob6.object_type_id ,
xob6.object_name ,
xca.category_code ,
xca.category_name,
xca.category_type ,
xca.active category_active,
xob6.active object_active,
xus.username ,
xus.user_id,
xob6.locked_by_name,
xob6.is_public object_public,
xca.is_public category_public,
xuo.username owner_username,
xuo.email    owner_email,
xuo.first_name owner_first,
xcm.role_id
FROM  xobject_category_map xcm
, xobject_category_map xcmo
, xobject xob6
, xcategory xc
, xcategory xca
, xuser xus
, xuser xuo
where 
/* for the given user find its default category */
 xc.category_type='CATEGORY'
and xc.category_code='DEFAULT_CATEGORY_PUBLIC'

/* find the category mappings with this default category */
and xc.category_id=xcm.category_id

/*is the category mapping active */
and xcm.active='Y'

/* find object asscoiated with this category, these are directly shared */
and xob6.object_id=xcm.object_id

/* for this object, find the parent category */
and xob6.object_id = xcmo.object_id
and xcmo.category_id = xca.category_id

/* parent category is of 'PROJECT' type */
and xca.category_type='PROJECT'

/* is the parent category active */
 and (xca.active='Y' OR xca.active='A')

/* is the object active */
 and  (xob6.active='Y' OR xob6.active='A')

/* find the owner of the object */
and xob6.created_by=xuo.user_id

/* who is the requesting user */
and xc.created_by=xus.user_id
) as x
, xrole r
where x.role_id =r.role_id
order by x.share_type,x.owner_username,x.category_name,x.object_name

[2018/03/07 02:48:52]   xmember_api._I011et97() sending the old connection which is still active
[2018/03/07 02:48:52]   _I011et93 
Array
(
)

[2018/03/07 02:49:01]   _I011et107() start
[2018/03/07 02:49:01]   decoded lic*** 
Array
(
    [order_number] => 5a9e81407867adm
    [expire_date] => 03/21/2018
    [ADMIN] => 1
    [DEVELOPER] => 0
    [VIEWER] => 0
    [cust_email] => demo_xapi@infocaptor.com
    [install_id] => _var_www_html_bigbox_public_infocaptor_dash_dasprod1_Linuxx86_64
    [type] => DEMO
    [restriction] => NONE
    [project_count] => 3
    [page_count] => 9
    [page_object_count] => -1
    [connect_object_count] => 3
    [job_object_count] => 6
    [company_name] => Demo
    [order_date] => 03/06/2018
    [name] => none
    [product_name] => ICE_SOCIAL_DW_DEMO
    [product_attr1] => xyz
    [url1] => localhost
    [url2] => 127.0.0.1
    [url3] => 10.62.165.147
)

[2018/03/07 02:49:01]   Array
(
    [order_number] => 5a9e81407867adm
    [expire_date] => 03/21/2018
    [ADMIN] => 1
    [DEVELOPER] => 0
    [VIEWER] => 0
    [cust_email] => demo_xapi@infocaptor.com
    [install_id] => _var_www_html_bigbox_public_infocaptor_dash_dasprod1_Linuxx86_64
    [type] => DEMO
    [restriction] => NONE
    [project_count] => 3
    [page_count] => 9
    [page_object_count] => -1
    [connect_object_count] => 3
    [job_object_count] => 6
    [company_name] => Demo
    [order_date] => 03/06/2018
    [name] => none
    [product_name] => ICE_SOCIAL_DW_DEMO
    [product_attr1] => xyz
    [url1] => localhost
    [url2] => 127.0.0.1
    [url3] => 10.62.165.147
    [license_text] => license
    [ss] => N
)

[2018/03/07 02:49:01]   xmember_api._I011ho151() start
[2018/03/07 02:49:01]   Array
(
    [user_id] => 1
    [first_name] => Adminstrator
    [last_name] => 
    [email] => NONE
    [role_id] => 1
    [sess_cache_id] => eadd8e6a53596b36aa84bd2ed2f33677ae8597b6
    [created_by] => 0
    [ip_address] => 0.0.0.0
    [active] => Y
    [username] => admin
    [api_id] => 62f9e2a7ef380710376585608c076011dad38aa3
    [role_name] => ADMIN
    [role_code] => ADMIN
    [level] => 0
    [description] => 
    [user_start_date] => 03/06/2018
    [user_end_date] => 04/06/2018
    [rows_affected] => 1
    [login_validated] => YES
    [UZ101] => X3Zhcl93d3dfaHRtbF9iaWdib3hfcHVibGljX2luZm9jYXB0b3JfZGFzaF9kYXNwcm9kMV9MaW51eHg4Nl82NA==
    [lic_details] => Array
        (
            [order_number] => 5a9e81407867adm
            [expire_date] => 03/21/2018
            [ADMIN] => 1
            [DEVELOPER] => 0
            [VIEWER] => 0
            [cust_email] => demo_xapi@infocaptor.com
            [install_id] => _var_www_html_bigbox_public_infocaptor_dash_dasprod1_Linuxx86_64
            [type] => DEMO
            [restriction] => NONE
            [project_count] => 3
            [page_count] => 9
            [page_object_count] => -1
            [connect_object_count] => 3
            [job_object_count] => 6
            [company_name] => Demo
            [order_date] => 03/06/2018
            [name] => none
            [product_name] => ICE_SOCIAL_DW_DEMO
            [product_attr1] => xyz
            [url1] => localhost
            [url2] => 127.0.0.1
            [url3] => 10.62.165.147
            [license_text] => license
            [ss] => N
        )

    [product_name] => ICE_SOCIAL_DW_DEMO
    [usage] => NORMAL
    [restrict] => NO
    [server_interaction] => YES
    [urlhost] => 10.62.165.147
    [domainhost] => 10.62.165.147:90
    [user_org_role] => ADMIN
)

[2018/03/07 02:49:01]   xmember_api._I011et97() start
[2018/03/07 02:49:01]   xmember_api.connection db_arrayArray
(
    [repository] => Array
        (
            [type] => mysql
            [host] => localhost
            [port] => 3306
            [user] => infocaptordb
            [pass] => infocaptordb
            [name] => infocaptor_server
        )

)

[2018/03/07 02:49:01]   mysql:host=localhost;port=3306;dbname=infocaptor_server
[2018/03/07 02:49:01]   mt.php mode=none
[2018/03/07 02:49:01]   domain -> 10.62.165.147
[2018/03/07 02:49:01]   user_agent=Mozilla/5.0 (Windows NT 10.0; Win64; x64) AppleWebKit/537.36 (KHTML, like Gecko) Chrome/64.0.3282.186 Safari/537.36
[2018/03/07 02:49:01]   get_user page
[2018/03/07 02:49:01]   page code is set to ''
[2018/03/07 02:49:01]   page code is = 
[2018/03/07 02:49:01]   xmember_api._I011et93() start
[2018/03/07 02:49:01]   xmember_api._I011et93 SQL=
SELECT xob6.object_id, 
xob6.object_code, 
xob6.object_type_id, 
xob6.object_name, 
xca.category_code,
xca.category_id, 
xca.category_name, 
xca.category_type, 
xca.active category_active, 
xob6.active object_active, xus.username, xus.user_id, xus.active user_active
,   xob6.locked_by_name
	   ,xob6.is_public object_public,
	   xca.is_public category_public,
	   xob6.attrib1,xob6.attrib2,xob6.attrib3
FROM xuser xus, xobject xob6, xcategory xca, xobject_category_map xob
WHERE xob6.object_id = xob.object_id
AND xca.category_id = xob.category_id
AND xus.username LIKE  '%'
AND xus.user_id = xob6.created_by
AND xca.category_type =  'PROJECT'
AND xob6.object_code LIKE  ''

[2018/03/07 02:49:01]   xmember_api._I011et97() sending the old connection which is still active
[2018/03/07 02:49:01]   _I011et93 
Array
(
)

[2018/03/07 02:49:01]    Hello admin 
[2018/03/07 02:49:01]   Get all static json file list
[2018/03/07 02:49:01]   xmember_api._I011et93() start
[2018/03/07 02:49:01]   xmember_api._I011et93 SQL=SELECT s.* 
FROM xsummary s
where s.username = 'admin' 
and s.metric_type='FLAT_JSON_FILE'

[2018/03/07 02:49:01]   xmember_api._I011et97() sending the old connection which is still active
[2018/03/07 02:49:01]   _I011et93 
Array
(
)

[2018/03/07 02:49:01]   _I011et107() start
[2018/03/07 02:49:01]   decoded lic*** 
Array
(
    [order_number] => 5a9e81407867adm
    [expire_date] => 03/21/2018
    [ADMIN] => 1
    [DEVELOPER] => 0
    [VIEWER] => 0
    [cust_email] => demo_xapi@infocaptor.com
    [install_id] => _var_www_html_bigbox_public_infocaptor_dash_dasprod1_Linuxx86_64
    [type] => DEMO
    [restriction] => NONE
    [project_count] => 3
    [page_count] => 9
    [page_object_count] => -1
    [connect_object_count] => 3
    [job_object_count] => 6
    [company_name] => Demo
    [order_date] => 03/06/2018
    [name] => none
    [product_name] => ICE_SOCIAL_DW_DEMO
    [product_attr1] => xyz
    [url1] => localhost
    [url2] => 127.0.0.1
    [url3] => 10.62.165.147
)

[2018/03/07 02:49:01]   Array
(
    [order_number] => 5a9e81407867adm
    [expire_date] => 03/21/2018
    [ADMIN] => 1
    [DEVELOPER] => 0
    [VIEWER] => 0
    [cust_email] => demo_xapi@infocaptor.com
    [install_id] => _var_www_html_bigbox_public_infocaptor_dash_dasprod1_Linuxx86_64
    [type] => DEMO
    [restriction] => NONE
    [project_count] => 3
    [page_count] => 9
    [page_object_count] => -1
    [connect_object_count] => 3
    [job_object_count] => 6
    [company_name] => Demo
    [order_date] => 03/06/2018
    [name] => none
    [product_name] => ICE_SOCIAL_DW_DEMO
    [product_attr1] => xyz
    [url1] => localhost
    [url2] => 127.0.0.1
    [url3] => 10.62.165.147
    [license_text] => license
    [ss] => N
)

